module gitlab.com/Matsurago/go-learn

go 1.21

require (
	github.com/mattn/go-sqlite3 v1.14.22
	github.com/stretchr/testify v1.8.4
	golang.org/x/sync v0.6.0
)

require (
	github.com/davecgh/go-spew v1.1.1 // indirect
	github.com/pmezard/go-difflib v1.0.0 // indirect
	github.com/stretchr/objx v0.5.0 // indirect
	gopkg.in/yaml.v3 v3.0.1 // indirect
)
